{
   "hotels":[
      {
         "_id":"5d9f94cf1c9d440000028f3d",
         "name":"Halekulani Hotel",
         "Property":[
            "Parking",
            "Pool",
            "Wifi"
         ],
         "features":[
            "Suites",
            "Family rooms",
            "Flatscreen TV",
            "Minibar"
         ],
         "CLASS":"4",
         "Reviews":[
            "nice hotel, really cool room, nice view even from 7 floor that I got. Real beautiful hotel, I did like a lot. I wouldn’t say they have Vegas best buffet, but it was okay, it was a clean and nice hote",
            "Enjoyed the stay. Not much to add as I was in meetings off property for the two days I was in town other than the company dinner at Allegro's. The staff at Allegro's was very attentive and the food was wonderful.",
            "The Tableau alone would be worth the visit! The staff and the level of service are pretty awesome. The Hotel is a no brainer! I would recommend this hotel also because it's in a prime location on the strip!",
            "It's the freshest, most luxurious hotel in the area with superb service and great staff, food, pool. Juts all together a great place to stop. Always check your bill carefully but otherwise my favourite hotel in Vegas",
            "Hotel in town without a park in front to unload the suitcases. Very bad welcome, the person (Asiatic) does not speak French, but wants to speak English, we ask to communicate in German, she does not speak correctly, incomprehensible. No garage for bikes, a cellar in the city more than 300 m very badly explained. A lot of traffic at night in front of the hotel",
            "Room not clean, full of spiders. Dirty, old carpet floor. The furniture is more than outdated ... staircase unkempt. Unfriendly reaction to defects. This is a Gelateria with some rooms-but no hotel. Absolutely not recommended"
         ],
         "images":[
            "https://media-cdn.tripadvisor.com/media/photo-p/18/4a/f5/24/encore-exterior.jpg",
            "https://media-cdn.tripadvisor.com/media/photo-w/18/4a/f5/7c/wynn-tower-suite-parlor.jpg",
            "https://media-cdn.tripadvisor.com/media/photo-w/18/4a/f5/4a/wynn-tableau.jpg"
         ],
         "location":"3131 Las Vegas Boulevard South, Las Vegas, NV 89109-1967",
            "price": 351
      },
      {
         "_id":"5da2fd711c9d440000154fd8"
         ,
         "name":"The Cosmopolitan of Las Vegas, Autograph Collection",
         "Property":[
            "Parking",
            "Free internet",
            "Fitness Center with Gym / Workout Room"
         ],
         "features":[
            "Non-smoking rooms",
            "Smoking rooms available",
            "Microwave",
            "Flatscreen TV"
         ],
         "CLASS":"5",
         "Reviews":[
            "Nice hotel but really disappointed that they didn’t honour the upgrade",
            " I always love staying at the cosmopolitan. It is such a beautiful hotel. The rooms are spacious and beautifully decorated. The bathroom was huge with a large walk in shower and lasso a large tub. The pool was lovely. There are many restaurants and bars to choose from as well. Highly recommend this hotel",
            "We loved this hotel, from getting the upgrade to a corner terrace, with a view of the Bellagio fountains everything was perfect. This room spoiled us, but being there for a week it allowed us a timeout with space to recover then carry on enjoying Las Vegas.  This was the first time in the Cosmo, and we found no down points, from check-in to check-out. The wicked spoon buffet was excellent and luckily was complimentary with our package so set us up for the day's enjoying Vegas. We particularly enjoyed the Barber Shop bar and watching the Band in an intimate setting.  Thanks to the Cosmopolitan and all the Staff for making our Holiday so memorable",
            "The Cosmopolitan is a classy hotel with almost everything that you could ask for in Vegas. We stayed in a regular room on the 56th with spectacular views, bathroom was large with double vanity - a life saver especially with my wife! Beds were comfortable and the rooms were spotlessly clean. No tea and coffee making facilities but a small mini fridge is very useful.  The rest of the hotel is so expansive and impossible to mention everything but just take your time to walk, explore and take it all in. Location is great too for easy off property exploring.  We would probably stay elsewhere next time but glad we tried it out. Thought about adding photos but ours look just like everyone elses."
         ],
         "images":[
            "https://media-cdn.tripadvisor.com/media/oyster/980/14/2b/0c/71/chelsea-wraparound-terrace.jpg",
            "https://media-cdn.tripadvisor.com/media/oyster/980/14/2b/0c/5a/chelsea-terrace-one-bedroom.jpg",
            "https://media-cdn.tripadvisor.com/media/oyster/980/14/2b/0c/7c/chelsea-wraparound-terrace.jpg"
         ],
         "location":"3708 Las Vegas Boulevard South, Las Vegas, NV 89109-4309",
            "price": 291
      },
      {
         "_id":"5da2ff8f1c9d440000154fda"
         ,
         "name":"Hotel Emma",
         "Property":[
            "Parking",
            "Business Center with Internet Access",
            "Free shuttle or taxi services"
         ],
         "features":[
            "Bridal suite",
            "Allergy-free room",
            "Housekeeping",
            "Minibar"
         ],
         "CLASS":"4",
         "Reviews":[
            "Beautiful hotel with really great service. So many things to see and discover in the facility, but bonus is the Pearl District area is a really well planned and diverse walkable area - so many good foods, shops, common areas. You can easily just plan to stay in the hotel and not leave that area the whole weekend - that's what we did and we have no qualms about it",
            "We had the most amazing stay at Hotel Emma! We've stayed at really nice hotels all over the world and I think Hotel Emma is at the top of my list! The attention to detail and sweet little accents in the room were second to none. As a business owner, I'm always paying attention to the small unexpected moments we can provide our clients, and Hotel Emma's Sleep kit, macaroons and turndown service all added to our sense of being totally spoiled! We'll be back! This is an ideal romantic get-away spot",
            "I really liked staying here, great location, great service very nice rooms. There is a real class to this place, good location for romantic weekend, rest and relaxation or to base yourself to explore San Antonio",
            "This is the best hotel in San Antonio. If you want to have a incredible and memorable experience, stay at hotel Emma. Would highly recommend for visitors to San Antonio and stay-cationers. Brunch at Supper was wonderful, we didn't want to leave the rooms they were so great, and I have never experienced the level of service we received at any other hotel. 11/10 would recommend"
         ],
         "images":[
            "https://media-cdn.tripadvisor.com/media/photo-w/19/86/5d/6d/suite.jpg",
            "https://media-cdn.tripadvisor.com/media/photo-w/18/99/d2/8f/guest-room.jpg",
            "https://media-cdn.tripadvisor.com/media/photo-w/14/af/73/68/view-of-river-downtown.jpg"
         ],
         "location":"136 E Grayson St, San Antonio, TX 78215-1397",
            "price": 411
      },
      {
         "_id":"5da301fb1c9d440000154fdb"
         ,
         "name":"Grand America Hotel",
         "Property":[
            "Parking",
            "Free internet",
            "Fitness Center with Gym / Workout Room"
         ],
         "features":[
            "Conference facilities",
            "Bar / lounge",
            "Pool",
            "Free High Speed Internet (WiFi)"
         ],
         "CLASS":"4",
         "Reviews":[
            "Elegant hotel \"It is well worth your stay. The service was impeccable. From the front desk staff to the housekeeping staff. Everyone so friendly, professional and helpful. They truly acting like they were happy to have you stay.( always a nice feeling)the suites are so beautiful and plenty",
            "One of the best hotels I've ever experienced \"I recently stayed here for a business trip for several days. The exterior of the hotel is beautiful, it stands out among the skyline of the city and is located in an ideal spot to reach all parts of downtown on foot within a matter of minutes. The interior is just as beautiful as the exterior with marbled floors and doorways, the staff was friendly and welcoming on check in and came arround to offer fresh baked cookies while we waited in line. I stayed in a Premier King room, and I kid you not it was larger than my first appartment. The room was well appointed with everything needed for a relaxing stay. The biggest supprise was the mini balcony that came with the room, I was able to open the door and let the cool mountian breeze through durring the day, it really enhanced the appeal of spending time in the room. The bed was comfortable, and the bathroom was luxurious. The staff exceeded all expectations, they would come by on a regular basis just to check to see if everything was alright and if any services were needed. While I did not have a chance to check out the pool or the spa the conference facilities are first rate. I would deffinitly stay here again given the chance\"",
            "After Dinner drink \"This review is 100% on Amart and Reynold; Their customer service attitude supersedes any I have ever encountered ! Truly these 2 men had a can-do attitude it was obvious they wanted you to enjoy your time in The Gibson Lounge. When Amart delivered the Olives and snacks to our table I ask if he had something a bit sweet and wanted to know if they had espresso ? Without hesitation he said we really don’t However, no worries I will get it for you and of course I will find something sweet to go with your coffee! Abracadabra it was served and excellent. The Spooktacular tea sandwiches were adorable and tasty. Reynold was wonderful in giving me a few local suggestion for sight seeing. These two gentleman ending our day in the most perfect relaxing way! Thank you we will be back!!! PS the hotel rooms are beautiful comfy beds, large rooms and the bathroom is spacious\"",
            "Still a 6-Star Experience!! \"On a scale of 1 to 5, this is truly a 6-star experience! I was here a year ago for a conference and I thoroughly enjoyed every aspect of my stay! So, when I learned I was returning for another conference this year, I was excited to try new things. Their afternoon tea in the lobby bar is perfectly done. Their spa and the amenities it offers are truly exquisite, as well as relaxing. The attention to detail throughout the property is a thing of beauty and for someone who recognizes such attention to detail, like me, I find myself in awe of their ability to keep this place so perfect! On the last trip, I had one complaint, which was that the shower in the guest quite I was in seemed to have to run about 5 minutes before the water would warm up enough to take a shower and also that the water is too soft and it’s difficult to get the “soapy” slick feeling off my skin when showering. Well, both of those were still the case this time, except I was in a hurry and didn’t have 5 minutes to wait for the shower to warm up one particular day, so I took a cold shower. This is my only complaint and even still, they execute so much in so many perfect way, that I’m hard-pressed to remember this even occurred and I’m definitely not hold it against them. Service from everyone we encounter throughout the property is over-the-top… They greet with a smile and willingness to assist. They are clearly highly trained and engage in conversation and it’s obvious that the staff enjoys their job. If you have time, the Gibson Girl Lounge is a great choice for a quick cocktail and snack. The lobby bar is nice for this, but the Gibson Girl is perfect, as it resembles a cozy lounge. The bed is incredibly comfy, as are the furry slippers that they give you at the evening turndown, which they offer for free. The rooms are fully furnished with nice furniture, iron and ironing board, a clothes steamer to remove the wrinkles, nice towels, and a minibar. The common areas are PERFECTLY maintained, landscaped and they looked INCREDIBLE!!! The attention to detail of all the marble, curtains, sconces, chandeliers, etc is mind-boggling, as it’s perfect as well! I can’t wait to return\""
         ],
         "images":[
            "https://media-cdn.tripadvisor.com/media/photo-o/11/02/9f/c4/premier-king.jpg",
            "https://media-cdn.tripadvisor.com/media/photo-o/04/1a/fb/b6/embassy-meeting-room.jpg",
            "https://media-cdn.tripadvisor.com/media/photo-w/11/02/b4/cc/view-from-guestroom.jpg"
         ],
         "location":"555 South Main Street, Salt Lake City, UT 84111-4100",
            "price": 233
      },
      {
         "_id":"5da383d01c9d440000486dc5"
         ,
         "name":"The Canyon Suites At The Phoenician",
         "Property":[
            "Parking",
            "Free internet",
            "Poolside bar"
         ],
         "features":[
            "Conference facilities",
            "Housekeeping",
            "Pool",
            "Free High Speed Internet (WiFi)"
         ],
         "CLASS":"5",
         "Reviews":[
            "Perfect \"This resort within a resort offers the best of both worlds - access to big resort amenities (including a fantastic fitness center) in an exclusive yet relaxed setting, with amazingly personalized service. Everything was perfect, from check-in to the lobster salad from room service to perfectly choreographed departure. Prices may be high, but so is the value, with valet parking included in the resort fee and complimentary continental breakfast.  Special kudos and thanks to Bryan at the front desk, the ultra friendly valets, and especially Jordan, for superlative service throughout my stay.\"",
            "Birthday Trip \"The room was large and very quiet. We had separate large tub and shower. A king size bed very comfy. There were 2 flat TV`s. One TV was in the bathroom , so you could soak and watch it. We had a pullout couch if neded for a bed and work table There was a lanai and small refrigerator. Room was extremely comfortable Every morning they brought a newspaper.We also had turn down service.Stephnie was like a concierge. She was extremely helpful with anything we needed. She was always pleasant and really seemed like she enjoyed her job.She served a bottle of wine and a cake for my Bday. All the emp-loyees were great and pleasant! A wonderful evironment\"",
            "Beyond Expectations!! \"We are the couple that travel a lot, read a lot and rarely review. Yet here we are feeling obligated to share our experience.  In one word ..... exceptional.  Since it wouldn’t be fair to mention those that stood out, all I’d like to say is Canyon Suites set the bar pretty high in Scottsdale/Phoenix.  They’re still fresh off a fantastic updating throughout the facility. Large screen TV with Chrome Cast ability, led lighting, USB charging everywhere. Canyon Suites is a separate, quieter section to the Phoenician, with its own private pools, cabanas, lobby and guest ambassadors.  If your considering the other big names in Scottsdale/Phoenix area, let me save you the trouble. Just book it.  All day, everyday our ice water pitchers were refreshed every 20min, while we soaked up the sun.  Complimentary rides back and forth to the Fashion Square, or waterfront via their GL550 Mercedes suv.  Beds made exclusively for the luxury division of Marriot that you’ll want to take home with you. \"",
            "Loved this quaint, upscale property! \"I love how this is a private property on the Phoenician grounds. You walk into the lobby and feel like you are the only people staying there. By the end of day 1, we knew everyone by first name and considered them almost friends! The bar was beautiful, the food tasty and the service wonderful. We loved the small, intimate feel of this hotel. We will definitely be back\""
         ],
         "images":[
            "https://media-cdn.tripadvisor.com/media/oyster/980/16/6b/64/eb/canyon-suite-king-v18543466.jpg",
            "https://media-cdn.tripadvisor.com/media/oyster/980/07/62/2f/6c/suite--v5362777.jpg",
            "https://media-cdn.tripadvisor.com/media/oyster/980/07/62/2e/9a/guest-room--v5362793.jpg"
         ],
         "location":"6000 E Camelback Rd, Scottsdale, AZ 85251-1949",
            "price": 401
      },
      {
         "_id":"5da3860d1c9d440000486dc6"
         ,
         "name":"Auberge du Soleil",
         "Property":[
            "Parking",
            "Free internet",
            "Poolside bar"
         ],
         "features":[
            "Conference facilities",
            "Housekeeping",
            "Pool",
            "Free High Speed Internet (WiFi)"
         ],
         "CLASS":"5",
         "Reviews":[
            "Best vacation in a long time. \"Auberge is by far the most amazing resort in Napa. The views are extraordinary. The rooms are all perfect and the the spa is one of the best we have ever been to. Our dinner there was also one of the best we had during our stay. Love this place.\"",
            "Thank you very much for your kind words and for being our guest at Auberge du Soleil. I am thrilled to read of your positive experience at the Spa, and I have passed your praises along to the mentioned departments. We all hope to be welcoming you back for another visit very soon!  Best regards, Bradley Reynolds General Manager ",
            "Absolutely perfect setting, service, wine and sunset.... a dream come true \"Thanks to the staff for getting us a beautiful veranda table for three, the chardonnay was beautiful form Grgich, and the red from Pulido-Walker (thanks to Austin, the best wine stewart in the valley). We ordered the selection of 3 with a dessert and were blown away...compliments to the Pastry Chef for sharing a 'pre-dessert', then wonderful desserts, then an 'apres dessert' all of which were amazing. Love love love this place !\"",
            "I am very pleased to read that you'll be joining us for future stays on your trips to the Napa Valley. Your high praise is very much appreciated, and it is a great honor to see the team's efforts recognized. Auberge du Soleil looks forward to welcoming you back in the near future!"
         ],
         "images":[
            "https://media-cdn.tripadvisor.com/media/oyster/980/0f/0d/81/c9/deluxe-suite--v15800999.jpg",
            "https://media-cdn.tripadvisor.com/media/oyster/980/05/9e/1d/56/upper-valley-view-room--v883286-3.jpg",
            "https://media-cdn.tripadvisor.com/media/oyster/980/05/9e/1d/3f/upper-valley-view-room--v883211-3.jpg"
         ],
         "location":"180 Rutherford Hill Rd., Rutherford, CA 94573",
            "price": 199
      },
      {
         "_id":"5da386c81c9d440000486dc9"
         ,
         "name":"Calistoga Ranch, Auberge Resorts Collection",
         "Property":[
            "Parking",
            "Free internet",
            "Poolside bar"
         ],
         "features":[
            "Conference facilities",
            "Housekeeping",
            "Pool",
            "Free High Speed Internet (WiFi)"
         ],
         "CLASS":"5",
         "Reviews":[
            "Over the top staff, accommodations, atmosphere, drinking and dining experience. We plan to return again. Staff provided very helpful support to tour the local wineries, and all other arrangements that we had requested.",
            " Thank you for being our guests and for the wonderful comments from your stay with us! I am so thrilled with your feedback on our staff members, and will pass along your praises to our team, and we hope to welcome you back again soon.",
            "Definitely our favorite hotel we have ever stayed. Impeccable staff, experience and food. Will 100% be going back. It was romantic, stunning, loved the pool area and our villa had a private jacuzzi. We had a private chef come to our room with a private wine pairing. I highly recommend.",
            "I am truly humbled by your wonderful review and I am so happy to hear you had the chance to experience our Chef Collection Dinner. With a stellar lineup of talented chefs who create a unique and personalized five course meal right in the comfort of you lodge, it is a food lovers dream. Have them pair a delicious lineup of local wines with dinner and your night is transformed into one you won't soon forget. Don't forget to have them show you a trick or two to take home and impress your friends."
         ],
         "images":[
            "https://media-cdn.tripadvisor.com/media/photo-w/06/be/b1/0d/calistoga-ranch-an-auberge.jpg",
            "https://media-cdn.tripadvisor.com/media/photo-s/00/11/32/64/room-deck-with-fireplace.jpg",
            "https://media-cdn.tripadvisor.com/media/photo-s/02/eb/b7/ff/calistoga-ranch-an-auberge.jpg"
         ],
         "location":"580 Lommel Rd, Calistoga, CA 94515-9607",
            "price": 218
      },
      {
         "_id":"5da3874a1c9d440000486dca"
         ,
         "name":"Four Seasons Resort Hualalai",
         "Property":[
            "Parking",
            "Free internet",
            "Poolside bar"
         ],
         "features":[
            "Conference facilities",
            "Housekeeping",
            "Pool",
            "Free High Speed Internet (WiFi)"
         ],
         "CLASS":"4",
         "Reviews":[
            "Best in the Islands \"Superb luxury on a casual basis. Great blending of local colors/materials and ambience with the superb service you come to expect from a Four Seasons. My sister burst into tears when she walked into the room. My favorite resort in Hawaii, bar none. Only a two story resort so you don't have that mega resort feel to it, more personal.\"",
            "Wonderful Hotel \"Absolutely fantastic with wonderful views and great service. Would’ve given it five stars except for the fact that the room service menu for the one night we decided to stay and was pitiful. The beach what is the best that we have been to in a Wailea\"",
            "expensive and no real beach \"I think the lack of a real beach was disappointing. The service was great, the food was not very well done. Reminded me a bit of Amusement park food. We ordered drinks at the pool by the pitcher. I think this was a bit cheaper.\"",
            "Thank you so much for taking the time to leave us such a wonderful review! We appreciate the feedback and are so happy to hear you had an overall positive experience with us here at Hualalai. We look forward to seeing you again soon!"
         ],
         "images":[
            "https://media-cdn.tripadvisor.com/media/oyster/980/15/29/99/9b/kailani-suite-v18618283.jpg",
            "https://media-cdn.tripadvisor.com/media/oyster/980/15/29/99/76/kailani-suite-v18618270.jpg",
            "https://media-cdn.tripadvisor.com/media/oyster/980/15/29/99/71/kailani-suite-v18618265.jpg"
         ],
         "location":"72-100 Ka'upulehu Drive, Kailua-Kona, Island of Hawaii, HI 96740-5610",
            "price": 288
      },
      {
         "_id":"5da387e41c9d440000486dcb"
         ,
         "name":"The Resort at Pelican Hill",
         "Property":[
            "Parking",
            "Free internet",
            "Poolside bar"
         ],
         "features":[
            "Conference facilities",
            "Housekeeping",
            "Pool",
            "Free High Speed Internet (WiFi)"
         ],
         "CLASS":"5",
         "Reviews":[
            "Great resort \"My high school friend and myself stayed a week at pelican hill. We chose a 2 bedroom ocean view villa. Views were outstanding. The villa while impeccably maintained was a little dated in decor, although the furnishings were of very high quality. The beds were extremely comfortable and we both noticed the best towels/ linens out of all of our previous 5- star resort stays. We both appreciated the daily texts from housekeeping concerning our schedules and when we would like our villa cleaned and/or turned down. Housekeeping kept our villa stocked with laundry detergent, bottled water, nespresso pods and an over abundance of fresh towels. The resort also kept us stocked with ice as the sub zero ice maker was inoperative. Our villa kitchen was stocked with many niceties such as half&half, milk, assorted cereals, condiments, selection of beers and sparkling waters. All complimentary. Resort staff also thoughtfully brought us on our first night, a bottle of bubbly, assorted cheeses/ crackers and fruit for my friends birthday. We both enjoyed the spa twice and selected 100 minute massages, my masseuse (Jeremy) was probably one of the best I've experienced. I was however surprised the spa missed (on both visits) offering us some bubbly while waiting for our appointments. Spa included the usual standards, eucalyptus steam room, sauna, nice showers and anything you may need such as premium razors, lotions, after shave etc.. We enjoyed the full menu in room dining option once during our stay. Keep in mind this is a very expansive resort and both the north and south villas are some distance from the restaurants so don't expect your meals piping hot. Food quality was as expected and generous in servings. The weather was amazing and it was nice to enjoy a fire in the fireplace almost every night during our stay. I would definitely stay at pelican hill on a future visit to Newport. The proximity to 73 toll road and of course the coast is very convenient.\"",
            "Very very disappointing \"We arrived on a Sunday morning to check in and our garden bungalow was ready within 30 minutes which was a great start but unfortunately the only plus point of this resort. After unpacking we headed to the Coliseum pool to begin a relaxing 2 days at the end of our holiday, wow, what a shock! There was a large group of unruly children running wild in and around the pool totally unsupervised by their parents. The resort rents out the cabanas which surround the pool on the upper level to local people who book them to celebrate different occasions. There were a number of parties ongoing when we arrived at the pool resulting in excessive noise and the unfortunate example of adults standing around in the pool consuming considerable amounts of alcohol. This is certainly not what we had expected from a 5 star resort. The staff are obviously well trained in apologising because it appears even asking for the simplest of things results in having to ask again. I would suggest if a request is acted upon immediately there is no need for profuse apologies. So maybe more training in reacting to guest requests rather training in apologising would bear fruit.\"",
            "I appreciate you taking the time to share your candid feedback with us and sincerely apologize that your visit to Pelican Hill was anything less than perfect. I'm disappointed that your experiences at Coliseum Pool fell short of the tranquil atmosphere you were looking forward to. While many guests visit the Resort looking to either relax or celebrate, I regret your overall experience was tarnished by both the service missteps and other guests. Please know I've addressed your detailed concerns with our Coliseum Pool and leadership teams, and we hope to regain your trust for a much-improved return if your travels bring you to Newport Beach in the future.",
            "Incredible Resort \"We travelled to Newport for a family function. Typically we stay at 5 star resorts. We have stayed at The Resort at Pelican Hill before and have found the service and facilities first rate. For the two of us we have stayed at the bungalows and they were roomy enough for us. This time we chose the villas. Like the name implies...very large and spacious. Villa 814 was beautiful and had a great view. We catered a party for my family and friends. The staff was attentive thoughtful and dedicated. The food and service were tremendous. The whole trip great. Will definitely go back!\""
         ],
         "images":[
            "https://media-cdn.tripadvisor.com/media/oyster/980/05/8f/6b/f3/bungalow-guest-room-suite--v15740.jpg",
            "https://media-cdn.tripadvisor.com/media/oyster/980/05/8f/6e/a5/four-bedroom-villa--v1573986-43.jpg",
            "https://media-cdn.tripadvisor.com/media/oyster/980/05/8f/6e/17/four-bedroom-villa--v1574052-43.jpg"
         ],
         "location":"22701 Pelican Hill Road South, Newport Beach, CA 92657-2008",
            "price": 410
      },
      {
         "_id":"5da3886e1c9d440000486dcc"
         ,
         "name":"Four Seasons Resort, Palm Beach",
         "Property":[
            "Parking",
            "Free internet",
            "Poolside bar"
         ],
         "features":[
            "Conference facilities",
            "Housekeeping",
            "Pool",
            "Free High Speed Internet (WiFi)"
         ],
         "CLASS":"5",
         "Reviews":[
            "If you are going to palm beach there really is only one great option and that is the four seasons. Trust me I stayed everywhere. One is worse then the other, in other words a tourist trap NOT. The four seasons. It’s beautiful, the service is incredible. A top notch spa and great food all right on the beach. What more could you possibly want?",
            "Leisure with my family \"Beautiful hotel, newly renovated. Very professional friendly staff. Great 5 star service. Recommend to everyone if you are on leisure or a business trip. Make sure to try the Florid restaurant. The food is delicious!\"",
            "Thank you for taking time to share feedback about your recent stay with us. We are absolutely delighted to know that you enjoyed our newly redesigned spaces as well as delicious cuisine at Florie’s. We strive to provide the highest level of service and are incredibly pleased to hear our team’s warm hospitality left such a positive impression. We look forward to welcoming you and your family back to Four Seasons Resort Palm Beach for another lovely stay.",
            "Needed a break and scheduled a five day weekend at The Four Seasons. I had been here for dinner a few times several years ago, but never as a hotel guest. The property and staff are exceptional in all ways. Very friendly and helpful while never feeling pushy. They all addressed us by name on sight within the first 24 hours. At check-in, we received an upgrade to a newly renovated ocean/pool view suite that was fabulous. All the little design details have been thought through and finishes are first class. The feel is classy Florida resort with no kitsch factor. "
         ],
         "images":[
            "https://media-cdn.tripadvisor.com/media/photo-w/18/e1/25/95/suite.jpg",
            "https://media-cdn.tripadvisor.com/media/photo-p/18/e1/25/8c/guest-room.jpg",
            "https://media-cdn.tripadvisor.com/media/photo-w/18/e1/25/78/guest-room.jpg"
         ],
         "location":"2800 South Ocean Boulevard, Palm Beach, FL 33480-6234",
            "price": 217
      },
      {
         "_id":"5da38a391c9d440000486dce"
         ,
         "name":"Belmond El Encanto",
         "Property":[
            "Parking",
            "Free internet",
            "Poolside bar"
         ],
         "features":[
            "Conference facilities",
            "Housekeeping",
            "Pool",
            "Free High Speed Internet (WiFi)"
         ],
         "CLASS":"5",
         "Reviews":[
            "We live in Santa Barbara so we've seen the highs and lows of the property going back a long, long time.  Several years ago, Santa Barbarans gave up on the El Encanto. What was once one of our favorite spots for dining and a staycation just could not seem to get it together. Locals would joke that we'd love to go there for lunch, but couldn't afford to be away from work for the four hours it would take.  We've avoided El Encanto for several years but decided to give a go twice in the last month. ",
            "Thank you so much for your lovely feedback! We are so delighted to hear how much you enjoyed your stay with us here at the beautiful Belmond El Encanto.  We are especially proud that you have taken time to recognize the staff. Our team truly enjoys making sure our guests our well taken care of during their visit.  We look forward to welcoming you back again soon!",
            "There is just no other place to stay in Santa Barbara. The staff is incredible. Every request, no matter how trivial, was met with a yes we can smile and satisfied beyond expectations.The views of the City and the ocean are amazing . The food and restaurant service are also top drawer!",
            "Day 2 we tried to sit by the pool in the late afternoon and there were no seats available. There's a bare unfurnished and unserviced sloped lawn outside the tiny fenced pool area where I found a lone chair for us to sit outside, but how can a luxury hotel have nowhere to offer its guests to sit outside in the late afternoon in sunny Southern California? Seats on the main restaurant terrace were reserved for afternoon tea service. So you can come from outside and pay like $50 for a seat with a view and tea or $1000 for the night and go sit in your room, which has no view by the way. "
         ],
         "images":[
            "https://media-cdn.tripadvisor.com/media/oyster/980/07/56/73/2e/superior-bugalow-suite--v2907448.jpg",
            "https://media-cdn.tripadvisor.com/media/oyster/980/07/56/72/2e/premiere-room-with-a-king-bed--v2.jpg",
            "https://media-cdn.tripadvisor.com/media/oyster/980/07/56/71/bf/oak-tree-suite--v2907421.jpg"
         ],
         "location":"800 Alvarado Place, Santa Barbara, CA 93103-2176",
            "price": 502
      },
      {
         "_id":"5da38aac1c9d440000486dcf"
         ,
         "name":"ark City Hostel",
         "Property":[
            "Free parking",
            "Laundry service",
            "Shared bathroom"
         ],
         "features":[
            "Conference facilities",
            "Housekeeping",
            "Pool",
            "Free High Speed Internet (WiFi)"
         ],
         "CLASS":"5",
         "Reviews":[
            "I’ve stayed here for one month. My expectations were succesfully accomplished. The staff is very friendly (Thank you Alex, Nick, Erik, John and Caroline) and always there to help you. The place is nice and clean. I highly recommend this hostel. 10/10 guys, you are doing an amazing job.",
            "After having stayed in plenty of hostels around the world, this one blows most of them out of the water. Being conveniently located within minutes from everything in Park City. Whether you’re driving or just feel like taking the free bus, anything you need is close by. The accommodations are more comfortable than your usual hostel with plenty of different room options, amazing attentive staff with lots of events offered plus great interaction with guests and very clean facilities make for a great all around stay! If you have never stayed at a hostel, after you stay at Park City Hostel, your bar will be set very high afterwards. Thanks to Nick, Eric, Alex and Caroline for making my stay better than expected and making me feel like family! You guys are the best!!!",
            "Not a good experience didn’t like how dirty it was walked in looked and rented something else honestly was a waste of money walked back in to tell the person we were not staying there was no one at the front desk waited for a good 15 mins and no one came to the front desk",
            "We are sorry to hear that the hostel wasn't what you were hoping for and are also sad to hear you found it looked dirty. Our staff works hard to ensure the place looks clean and every member helps to make it that way. Staff members are not always sitting at the desk, as running the hostel has many tasks associated with it, but we appreciate you letting us know what concerned you. Hopefully, in the future we can host you and give you the experience you were hoping for."
         ],
         "images":[
            "https://media-cdn.tripadvisor.com/media/photo-w/0b/6d/ff/4c/park-city-hostel.jpg",
            "https://media-cdn.tripadvisor.com/media/photo-m/1280/16/b8/05/90/our-wonderful-patio-on.jpg",
            "https://media-cdn.tripadvisor.com/media/photo-w/0a/e0/6e/ad/rooftop.jpg"
         ],
         "location":"1781 Sidewinder Dr Suite 201, Park City, UT 84060-7322",
            "price": 400
      },
      {
         "_id":"5da38c091c9d440000486dd0"
         ,
         "name":"Silverado Lodge",
         "Property":[
            "Free parking",
            "Laundry service",
            "Shared bathroom"
         ],
         "features":[
            "Conference facilities",
            "Housekeeping",
            "Pool",
            "Free High Speed Internet (WiFi)"
         ],
         "CLASS":"3",
         "Reviews":[
            "This place was a dump. There wasn't a part of the room that wasn't disgusting. I'm really not one to focus on slight issues. But this place is a trash heap of a place to stay. One issue I noticed just on entering the property is that the door to get into the hallway of the building did not lock. There seemed to be two different options to lock and allow a card access or a button code mechanism, but neither were used. Anyone that wanted to enter the property could. After walking into the room, I noticed that the interior door security latch was gone. Not sure what that was about, but there were plenty of old screw holes to show the history of latches. As soon as you walk in you wonder where the smell is coming from. The light switch inside the door didn't work so we had to find a lamp to turn on. The carpet looks like a scrap from somewhere that was going to be trashed but someone put it to use in this room. There were too many stains to count on the carpet. The chairs at the tables were stained in so many different shades I couldn't figure out what their original color might have been. Like mentioned in another review, the beds are hard as a rock. I'm all about a firm bed, but I imagine some jails have better bedding. Another thing we noticed when we walked into the room was how hot it was. Since the thermostat was only hooked up to the heater we had to turn it off and then plug in the small wall mounted A/C unit. I seen a picture of a room that was set up like ours, but the picture had those two units painted white. Our unit still had the original brown coloration from the 60's I'm guessing. When we tried to use the A/C it just blew what I could tell was recirculated air without cooling it. We had to open the window to get the room to cool down, I can just imagine what happens when it is the summertime. We tried this since we assumed that KSL travel wouldn't put dumps on their site as last minute deals, but I was wrong. The shower floor was so old that the porcelain floor was peeling away. The sink had cracks around the drain. It felt like everything in this room was 2nd hand stuff. I think about the only thing this place would be good for is a frat party, because I can't imagine doing anything more to this room that isn't already done, and not fixed",
            "The hallway smelled like urine, the room did not have a screen for the window and the air conditioning unit was 40 years old and loud as an airplane. The beds were the worst part: they were the most uncomfortable bed I have slept on in my life. Woke up every hour or so all night long.",
            "I actually booked this place without seeing any of the reviews on here as I needed a last minute place for a work trip to the Sundance film festival. My choices were limited (due to late booking), so didn't have any reasonably priced options.",
            "Don't Stay Here! \"The Carriage House is dirty, with paper this walls, The windows block no noise from the parking lot. It sounds as if you have people right in the condo with you. The condo is non refundable for any reason don't risk it. Rent a reputable place. This is not it. Never again!!!\""
         ],
         "images":[
            "https://media-cdn.tripadvisor.com/media/photo-o/03/8b/23/b0/prospector-accommodations.jpg",
            "https://media-cdn.tripadvisor.com/media/photo-s/02/3a/6d/a2/studio-kitchen.jpg",
            "https://media-cdn.tripadvisor.com/media/photo-o/03/8b/23/a7/prospector-accommodations.jpg"
         ],
         "location":"1940 Prospector Ave, Park City, UT 84060-4410",
            "price": 366
      },
      {
         "_id":"5da38efe1c9d440000486dd3"
         ,
         "name":"Hyatt Place Park City",
         "Property":[
            "Free parking",
            "Laundry service",
            "Shared bathroom"
         ],
         "features":[
            "Conference facilities",
            "Housekeeping",
            "Pool",
            "Free High Speed Internet (WiFi)"
         ],
         "CLASS":"3",
         "Reviews":[
            "Most impressed \"This hotel is impeccable and great value! I’ve stayed in many 5 star hotels that could learn a few things from the staff here. The breakfast was an unexpected treat too! I look forward to coming back. Thanks\"",
            "The hallway smelled like urine, the room did not have a screen for the window and the air conditioning unit was 40 years old and loud as an airplane. The beds were the worst part: they were the most uncomfortable bed I have slept on in my life. Woke up every hour or so all night long.",
            "I actually booked this place without seeing any of the reviews on here as I needed a last minute place for a work trip to the Sundance film festival. My choices were limited (due to late booking), so didn't have any reasonably priced options.",
            "This hotel was everything my husband and I were looking for. It was very clean, friendly staff, good food and overall a wonderful way to end our vacation. We were not disappointed. We will come back for sure"
         ],
         "images":[
            "https://media-cdn.tripadvisor.com/media/photo-w/17/d0/11/1d/guest-room.jpg",
            "https://media-cdn.tripadvisor.com/media/photo-w/0b/45/ed/fd/year-round-outdoor-hot.jpg",
            "https://media-cdn.tripadvisor.com/media/photo-w/0b/45/f0/98/guest-room-shower.jpg"
         ],
         "location":"4377 Highway 224, Park City, UT 84098-5948",
            "price": 377
      },
      {
         "_id":"5da38efe1c9d440000486dd3"
         ,
         "name":"Hyatt Place Park City",
         "Property":[
            "Free parking",
            "Laundry service",
            "Shared bathroom"
         ],
         "features":[
            "Conference facilities",
            "Housekeeping",
            "Pool",
            "Free High Speed Internet (WiFi)"
         ],
         "CLASS":"3",
         "Reviews":[
            "Most impressed \"This hotel is impeccable and great value! I’ve stayed in many 5 star hotels that could learn a few things from the staff here. The breakfast was an unexpected treat too! I look forward to coming back. Thanks\"",
            "The hallway smelled like urine, the room did not have a screen for the window and the air conditioning unit was 40 years old and loud as an airplane. The beds were the worst part: they were the most uncomfortable bed I have slept on in my life. Woke up every hour or so all night long.",
            "I actually booked this place without seeing any of the reviews on here as I needed a last minute place for a work trip to the Sundance film festival. My choices were limited (due to late booking), so didn't have any reasonably priced options.",
            "This hotel was everything my husband and I were looking for. It was very clean, friendly staff, good food and overall a wonderful way to end our vacation. We were not disappointed. We will come back for sure"
         ],
         "images":[
            "https://media-cdn.tripadvisor.com/media/photo-w/17/d0/11/1d/guest-room.jpg",
            "https://media-cdn.tripadvisor.com/media/photo-w/0b/45/ed/fd/year-round-outdoor-hot.jpg",
            "https://media-cdn.tripadvisor.com/media/photo-w/0b/45/f0/98/guest-room-shower.jpg"
         ],
         "location":"4377 Highway 224, Park City, UT 84098-5948",
            "price": 314
      }
   ]
}